EESchema Schematic File Version 2
LIBS:ADC
LIBS:power
LIBS:device
LIBS:transistors
LIBS:conn
LIBS:linear
LIBS:regul
LIBS:74xx
LIBS:cmos4000
LIBS:adc-dac
LIBS:memory
LIBS:xilinx
LIBS:special
LIBS:microcontrollers
LIBS:dsp
LIBS:microchip
LIBS:analog_switches
LIBS:motorola
LIBS:texas
LIBS:intel
LIBS:audio
LIBS:interface
LIBS:digital-audio
LIBS:philips
LIBS:display
LIBS:cypress
LIBS:siliconi
LIBS:opto
LIBS:atmel
LIBS:contrib
LIBS:valves
LIBS:burr-brown
LIBS:burr-brown-3
LIBS:FUENTE-cache
LIBS:ADC-FILTRO-cache
EELAYER 27 0
EELAYER END
$Descr A4 11693 8268
encoding utf-8
Sheet 3 4
Title ""
Date "10 sep 2015"
Rev ""
Comp ""
Comment1 ""
Comment2 ""
Comment3 ""
Comment4 ""
$EndDescr
$Comp
L ADS7813P IC1
U 1 1 55EDB07B
P 5350 3650
F 0 "IC1" H 4950 4275 50  0000 L BNN
F 1 "ADS7813P" H 4950 2950 50  0000 L BNN
F 2 "burr-brown-DIL16" H 5350 3800 50  0001 C CNN
F 3 "" H 5350 3650 60  0000 C CNN
	1    5350 3650
	1    0    0    -1  
$EndComp
$Comp
L GND #PWR01
U 1 1 55EDB22F
P 7100 4000
F 0 "#PWR01" H 7100 4000 30  0001 C CNN
F 1 "GND" H 7100 3930 30  0001 C CNN
F 2 "" H 7100 4000 60  0000 C CNN
F 3 "" H 7100 4000 60  0000 C CNN
	1    7100 4000
	1    0    0    -1  
$EndComp
$Comp
L C C4
U 1 1 55EDB295
P 7100 3700
F 0 "C4" H 7100 3800 40  0000 L CNN
F 1 "0.1uF" H 7106 3615 40  0000 L CNN
F 2 "~" H 7138 3550 30  0000 C CNN
F 3 "~" H 7100 3700 60  0000 C CNN
	1    7100 3700
	1    0    0    -1  
$EndComp
$Comp
L C C5
U 1 1 55EDB2A4
P 7350 3700
F 0 "C5" H 7350 3800 40  0000 L CNN
F 1 "10uF" H 7356 3615 40  0000 L CNN
F 2 "~" H 7388 3550 30  0000 C CNN
F 3 "~" H 7350 3700 60  0000 C CNN
	1    7350 3700
	1    0    0    -1  
$EndComp
$Comp
L +5V #PWR02
U 1 1 55EDB2D6
P 7350 3400
F 0 "#PWR02" H 7350 3490 20  0001 C CNN
F 1 "+5V" H 7350 3490 30  0000 C CNN
F 2 "" H 7350 3400 60  0000 C CNN
F 3 "" H 7350 3400 60  0000 C CNN
	1    7350 3400
	1    0    0    -1  
$EndComp
$Comp
L C C3
U 1 1 55EDB32C
P 5650 4450
F 0 "C3" H 5650 4550 40  0000 L CNN
F 1 "1uF" H 5656 4365 40  0000 L CNN
F 2 "~" H 5688 4300 30  0000 C CNN
F 3 "~" H 5650 4450 60  0000 C CNN
	1    5650 4450
	0    -1   -1   0   
$EndComp
$Comp
L GND #PWR03
U 1 1 55EDB3AA
P 6000 4600
F 0 "#PWR03" H 6000 4600 30  0001 C CNN
F 1 "GND" H 6000 4530 30  0001 C CNN
F 2 "" H 6000 4600 60  0000 C CNN
F 3 "" H 6000 4600 60  0000 C CNN
	1    6000 4600
	1    0    0    -1  
$EndComp
$Comp
L GND #PWR04
U 1 1 55EDB3D2
P 4200 4700
F 0 "#PWR04" H 4200 4700 30  0001 C CNN
F 1 "GND" H 4200 4630 30  0001 C CNN
F 2 "" H 4200 4700 60  0000 C CNN
F 3 "" H 4200 4700 60  0000 C CNN
	1    4200 4700
	1    0    0    -1  
$EndComp
$Comp
L C C1
U 1 1 55EDB3E1
P 4100 4400
F 0 "C1" H 4100 4500 40  0000 L CNN
F 1 "1uF" H 4106 4315 40  0000 L CNN
F 2 "~" H 4138 4250 30  0000 C CNN
F 3 "~" H 4100 4400 60  0000 C CNN
	1    4100 4400
	1    0    0    -1  
$EndComp
$Comp
L C C2
U 1 1 55EDB3F0
P 4350 4400
F 0 "C2" H 4350 4500 40  0000 L CNN
F 1 "0.01uF" H 4356 4315 40  0000 L CNN
F 2 "~" H 4388 4250 30  0000 C CNN
F 3 "~" H 4350 4400 60  0000 C CNN
	1    4350 4400
	1    0    0    -1  
$EndComp
$Comp
L GND #PWR05
U 1 1 55EDB4C9
P 6100 4050
F 0 "#PWR05" H 6100 4050 30  0001 C CNN
F 1 "GND" H 6100 3980 30  0001 C CNN
F 2 "" H 6100 4050 60  0000 C CNN
F 3 "" H 6100 4050 60  0000 C CNN
	1    6100 4050
	1    0    0    -1  
$EndComp
Wire Wire Line
	7350 3500 7350 3400
Wire Wire Line
	7100 3500 7100 3450
Wire Wire Line
	6850 3450 7350 3450
Connection ~ 7350 3450
Wire Wire Line
	7350 3900 7350 3950
Wire Wire Line
	7350 3950 7100 3950
Wire Wire Line
	7100 3900 7100 4000
Connection ~ 7100 3950
Wire Wire Line
	5950 3850 6850 3850
Wire Wire Line
	6850 3850 6850 3450
Connection ~ 7100 3450
Wire Wire Line
	6000 4150 6000 4600
Wire Wire Line
	6000 4450 5850 4450
Wire Wire Line
	4750 3950 4700 3950
Wire Wire Line
	4700 3950 4700 3900
Wire Wire Line
	4700 3900 5300 3900
Wire Wire Line
	5300 3900 5300 4450
Wire Wire Line
	5300 4450 5450 4450
Connection ~ 6000 4450
Wire Wire Line
	4100 4150 4750 4150
Wire Wire Line
	6000 4050 5950 4050
Wire Wire Line
	6000 3950 6000 4050
Wire Wire Line
	5500 3950 6100 3950
Wire Wire Line
	5500 3950 5500 3400
Wire Wire Line
	5500 3400 4700 3400
Wire Wire Line
	4700 3400 4700 3350
Wire Wire Line
	6100 3950 6100 4050
Connection ~ 6000 3950
Text HLabel 4200 3150 0    60   Input ~ 0
IN
Wire Wire Line
	4750 3150 4200 3150
Wire Wire Line
	4750 3250 4700 3250
Wire Wire Line
	4700 3250 4700 3300
Wire Wire Line
	4700 3300 5550 3300
Wire Wire Line
	5550 3300 5550 3600
Wire Wire Line
	5550 3600 6000 3600
Wire Wire Line
	6000 3600 6000 3550
Wire Wire Line
	6000 3550 5950 3550
Text HLabel 4600 3650 0    60   Input ~ 0
CONV
$Comp
L GND #PWR06
U 1 1 55EDB630
P 3900 3650
F 0 "#PWR06" H 3900 3650 30  0001 C CNN
F 1 "GND" H 3900 3580 30  0001 C CNN
F 2 "" H 3900 3650 60  0000 C CNN
F 3 "" H 3900 3650 60  0000 C CNN
	1    3900 3650
	0    1    1    0   
$EndComp
Wire Wire Line
	4750 3650 4600 3650
Wire Wire Line
	4000 3750 4750 3750
Wire Wire Line
	4000 3550 4000 3750
Wire Wire Line
	4000 3650 3900 3650
Wire Wire Line
	4750 3550 4000 3550
Connection ~ 4000 3650
Wire Wire Line
	4450 3850 4750 3850
Text HLabel 6150 3150 2    60   Output ~ 0
DATA
Wire Wire Line
	6150 3150 5950 3150
Text HLabel 4650 4050 0    60   Input ~ 0
DATACLK
Wire Wire Line
	4750 4050 4650 4050
Wire Wire Line
	4100 4150 4100 4200
Wire Wire Line
	4350 4200 4350 4150
Connection ~ 4350 4150
Wire Wire Line
	4350 4600 4350 4650
Wire Wire Line
	4350 4650 4100 4650
Wire Wire Line
	4100 4650 4100 4600
Wire Wire Line
	4200 4650 4200 4700
Connection ~ 4200 4650
Text HLabel 6300 3350 2    60   Output ~ 0
BUSY
Wire Wire Line
	6300 3350 5950 3350
Wire Wire Line
	5950 4150 6000 4150
$Comp
L +5V #PWR?
U 1 1 55F1C4B4
P 4450 3850
F 0 "#PWR?" H 4450 3940 20  0001 C CNN
F 1 "+5V" H 4450 3940 30  0000 C CNN
F 2 "" H 4450 3850 60  0000 C CNN
F 3 "" H 4450 3850 60  0000 C CNN
	1    4450 3850
	0    -1   -1   0   
$EndComp
Wire Wire Line
	4700 3350 4750 3350
$EndSCHEMATC
