EESchema Schematic File Version 2
LIBS:ADC
LIBS:power
LIBS:device
LIBS:transistors
LIBS:conn
LIBS:linear
LIBS:regul
LIBS:74xx
LIBS:cmos4000
LIBS:adc-dac
LIBS:memory
LIBS:xilinx
LIBS:special
LIBS:microcontrollers
LIBS:dsp
LIBS:microchip
LIBS:analog_switches
LIBS:motorola
LIBS:texas
LIBS:intel
LIBS:audio
LIBS:interface
LIBS:digital-audio
LIBS:philips
LIBS:display
LIBS:cypress
LIBS:siliconi
LIBS:opto
LIBS:atmel
LIBS:contrib
LIBS:valves
LIBS:burr-brown
LIBS:burr-brown-3
LIBS:FUENTE-cache
LIBS:ADC-FILTRO-cache
EELAYER 27 0
EELAYER END
$Descr A4 11693 8268
encoding utf-8
Sheet 2 4
Title ""
Date "10 sep 2015"
Rev ""
Comp ""
Comment1 ""
Comment2 ""
Comment3 ""
Comment4 ""
$EndDescr
Text HLabel 2400 4350 0    60   Input ~ 0
+15
Text HLabel 2400 5350 0    60   Input ~ 0
-15V
$Comp
L LM7810ACT U?
U 1 1 55F1B784
P 4100 4400
F 0 "U?" H 3900 4600 40  0000 C CNN
F 1 "LM7810ACT" H 4100 4600 40  0000 L CNN
F 2 "TO-220" H 4100 4500 30  0000 C CIN
F 3 "~" H 4100 4400 60  0000 C CNN
	1    4100 4400
	1    0    0    -1  
$EndComp
$Comp
L LM7910CT U?
U 1 1 55F1B79D
P 4100 5350
F 0 "U?" H 3900 5150 40  0000 C CNN
F 1 "LM7910CT" H 4100 5150 40  0000 L CNN
F 2 "TO-220" H 4100 5250 30  0000 C CIN
F 3 "~" H 4100 5350 60  0000 C CNN
	1    4100 5350
	1    0    0    -1  
$EndComp
$Comp
L GND #PWR?
U 1 1 55F1B7AC
P 3100 4900
F 0 "#PWR?" H 3100 4900 30  0001 C CNN
F 1 "GND" H 3100 4830 30  0001 C CNN
F 2 "" H 3100 4900 60  0000 C CNN
F 3 "" H 3100 4900 60  0000 C CNN
	1    3100 4900
	1    0    0    -1  
$EndComp
Wire Wire Line
	4100 4650 4100 5100
Wire Wire Line
	3100 4850 6750 4850
Wire Wire Line
	3100 4850 3100 4900
Connection ~ 4100 4850
Wire Wire Line
	2400 4350 3700 4350
Wire Wire Line
	2400 5350 3700 5350
Wire Wire Line
	3700 5350 3700 5400
$Comp
L C C?
U 1 1 55F1B811
P 3350 4600
F 0 "C?" H 3350 4700 40  0000 L CNN
F 1 "0.33uF" H 3356 4515 40  0000 L CNN
F 2 "~" H 3388 4450 30  0000 C CNN
F 3 "~" H 3350 4600 60  0000 C CNN
	1    3350 4600
	1    0    0    -1  
$EndComp
$Comp
L C C?
U 1 1 55F1B820
P 3350 5100
F 0 "C?" H 3350 5200 40  0000 L CNN
F 1 "2.2uF" H 3356 5015 40  0000 L CNN
F 2 "~" H 3388 4950 30  0000 C CNN
F 3 "~" H 3350 5100 60  0000 C CNN
	1    3350 5100
	1    0    0    -1  
$EndComp
$Comp
L C C?
U 1 1 55F1B82F
P 4800 4600
F 0 "C?" H 4800 4700 40  0000 L CNN
F 1 "0.1uF" H 4806 4515 40  0000 L CNN
F 2 "~" H 4838 4450 30  0000 C CNN
F 3 "~" H 4800 4600 60  0000 C CNN
	1    4800 4600
	1    0    0    -1  
$EndComp
$Comp
L C C?
U 1 1 55F1B83E
P 4800 5100
F 0 "C?" H 4800 5200 40  0000 L CNN
F 1 "1uF" H 4806 5015 40  0000 L CNN
F 2 "~" H 4838 4950 30  0000 C CNN
F 3 "~" H 4800 5100 60  0000 C CNN
	1    4800 5100
	1    0    0    -1  
$EndComp
Wire Wire Line
	4500 4350 5800 4350
Wire Wire Line
	4800 4350 4800 4400
Wire Wire Line
	4800 4800 4800 4900
Connection ~ 4800 4850
Wire Wire Line
	3350 4400 3350 4350
Connection ~ 3350 4350
Wire Wire Line
	3350 4800 3350 4900
Connection ~ 3350 4850
Wire Wire Line
	3350 5300 3350 5350
Connection ~ 3350 5350
Wire Wire Line
	4500 5400 5450 5400
Wire Wire Line
	4800 5400 4800 5300
$Comp
L DIODE D?
U 1 1 55F1B8B6
P 5200 4600
F 0 "D?" H 5200 4700 40  0000 C CNN
F 1 "1N4001" H 5200 4500 40  0000 C CNN
F 2 "~" H 5200 4600 60  0000 C CNN
F 3 "~" H 5200 4600 60  0000 C CNN
	1    5200 4600
	0    -1   -1   0   
$EndComp
$Comp
L DIODE D?
U 1 1 55F1B8C5
P 5200 5100
F 0 "D?" H 5200 5200 40  0000 C CNN
F 1 "1N4001" H 5200 5000 40  0000 C CNN
F 2 "~" H 5200 5100 60  0000 C CNN
F 3 "~" H 5200 5100 60  0000 C CNN
	1    5200 5100
	0    -1   -1   0   
$EndComp
Wire Wire Line
	5200 4800 5200 4900
Connection ~ 5200 4850
Wire Wire Line
	5200 5400 5200 5300
Connection ~ 4800 5400
Wire Wire Line
	5200 4250 5200 4400
Connection ~ 4800 4350
$Comp
L LM7805 U?
U 1 1 55F1B93C
P 6200 4400
F 0 "U?" H 6350 4204 60  0000 C CNN
F 1 "LM7805" H 6200 4600 60  0000 C CNN
F 2 "~" H 6200 4400 60  0000 C CNN
F 3 "~" H 6200 4400 60  0000 C CNN
	1    6200 4400
	1    0    0    -1  
$EndComp
Connection ~ 5200 4350
Wire Wire Line
	6200 4850 6200 4650
$Comp
L C C?
U 1 1 55F1B981
P 5700 4600
F 0 "C?" H 5700 4700 40  0000 L CNN
F 1 "0.33uF" H 5706 4515 40  0000 L CNN
F 2 "~" H 5738 4450 30  0000 C CNN
F 3 "~" H 5700 4600 60  0000 C CNN
	1    5700 4600
	1    0    0    -1  
$EndComp
$Comp
L C C?
U 1 1 55F1B990
P 6750 4600
F 0 "C?" H 6750 4700 40  0000 L CNN
F 1 "0.1uF" H 6756 4515 40  0000 L CNN
F 2 "~" H 6788 4450 30  0000 C CNN
F 3 "~" H 6750 4600 60  0000 C CNN
	1    6750 4600
	1    0    0    -1  
$EndComp
Wire Wire Line
	6750 4300 6750 4400
Wire Wire Line
	6750 4350 6600 4350
Wire Wire Line
	6750 4850 6750 4800
Connection ~ 6200 4850
Wire Wire Line
	5700 4850 5700 4800
Connection ~ 5700 4850
Wire Wire Line
	5700 4400 5700 4350
Connection ~ 5700 4350
$Comp
L -10V #PWR?
U 1 1 55F1BA1D
P 5450 5400
F 0 "#PWR?" H 5450 5530 20  0001 C CNN
F 1 "-10V" H 5450 5500 30  0000 C CNN
F 2 "" H 5450 5400 60  0000 C CNN
F 3 "" H 5450 5400 60  0000 C CNN
	1    5450 5400
	0    1    1    0   
$EndComp
$Comp
L VCC #PWR?
U 1 1 55F1BA2C
P 5200 4250
F 0 "#PWR?" H 5200 4350 30  0001 C CNN
F 1 "VCC" H 5200 4350 30  0000 C CNN
F 2 "" H 5200 4250 60  0000 C CNN
F 3 "" H 5200 4250 60  0000 C CNN
	1    5200 4250
	1    0    0    -1  
$EndComp
Connection ~ 5200 5400
$Comp
L +5V #PWR?
U 1 1 55F1BA83
P 6750 4300
F 0 "#PWR?" H 6750 4390 20  0001 C CNN
F 1 "+5V" H 6750 4390 30  0000 C CNN
F 2 "" H 6750 4300 60  0000 C CNN
F 3 "" H 6750 4300 60  0000 C CNN
	1    6750 4300
	1    0    0    -1  
$EndComp
Connection ~ 6750 4350
$EndSCHEMATC
